<?xml version="1.0" encoding="UTF-8" standalone="no"?>
<!DOCTYPE svg PUBLIC "-//W3C//DTD SVG 1.1//EN"
 "http://www.w3.org/Graphics/SVG/1.1/DTD/svg11.dtd">
<!-- Generated by graphviz version 2.40.1 (20161225.0304)
 -->
<!-- Title: dependencies Pages: 1 -->
<svg width="1095pt" height="332pt"
 viewBox="0.00 0.00 1094.84 332.00" xmlns="http://www.w3.org/2000/svg" xmlns:xlink="http://www.w3.org/1999/xlink">
<g id="graph0" class="graph" transform="scale(1 1) rotate(0) translate(4 328)">
<title>dependencies</title>
<polygon fill="#ffffff" stroke="transparent" points="-4,4 -4,-328 1090.8426,-328 1090.8426,4 -4,4"/>
<!-- mocha -->
<g id="node1" class="node">
<title>mocha</title>
<ellipse fill="none" stroke="#000000" cx="569.8426" cy="-306" rx="34.394" ry="18"/>
<text text-anchor="middle" x="569.8426" y="-302.3" font-family="Times,serif" font-size="14.00" fill="#000000">mocha</text>
</g>
<!-- escape&#45;string&#45;regexp -->
<g id="node2" class="node">
<title>escape&#45;string&#45;regexp</title>
<ellipse fill="none" stroke="#000000" cx="83.8426" cy="-234" rx="83.6854" ry="18"/>
<text text-anchor="middle" x="83.8426" y="-230.3" font-family="Times,serif" font-size="14.00" fill="#000000">escape&#45;string&#45;regexp</text>
</g>
<!-- mocha&#45;&gt;escape&#45;string&#45;regexp -->
<g id="edge1" class="edge">
<title>mocha&#45;&gt;escape&#45;string&#45;regexp</title>
<path fill="none" stroke="#000000" d="M536.1041,-301.9949C468.0108,-293.7724 309.3405,-273.9085 176.8426,-252 169.7593,-250.8288 162.3873,-249.5336 155.031,-248.1907"/>
<polygon fill="#000000" stroke="#000000" points="155.5088,-244.7197 145.0382,-246.3371 154.2321,-251.6023 155.5088,-244.7197"/>
</g>
<!-- mkdirp -->
<g id="node3" class="node">
<title>mkdirp</title>
<ellipse fill="none" stroke="#000000" cx="221.8426" cy="-234" rx="36.2938" ry="18"/>
<text text-anchor="middle" x="221.8426" y="-230.3" font-family="Times,serif" font-size="14.00" fill="#000000">mkdirp</text>
</g>
<!-- mocha&#45;&gt;mkdirp -->
<g id="edge2" class="edge">
<title>mocha&#45;&gt;mkdirp</title>
<path fill="none" stroke="#000000" d="M535.8376,-302.1289C479.4087,-295.216 363.1887,-278.898 267.8426,-252 265.057,-251.2142 262.2063,-250.3227 259.3563,-249.367"/>
<polygon fill="#000000" stroke="#000000" points="260.358,-246.0082 249.7634,-245.9312 257.9976,-252.5982 260.358,-246.0082"/>
</g>
<!-- debug -->
<g id="node5" class="node">
<title>debug</title>
<ellipse fill="none" stroke="#000000" cx="308.8426" cy="-234" rx="32.4942" ry="18"/>
<text text-anchor="middle" x="308.8426" y="-230.3" font-family="Times,serif" font-size="14.00" fill="#000000">debug</text>
</g>
<!-- mocha&#45;&gt;debug -->
<g id="edge4" class="edge">
<title>mocha&#45;&gt;debug</title>
<path fill="none" stroke="#000000" d="M537.2796,-299.846C493.891,-291.2315 415.0156,-274.1192 349.8426,-252 347.6065,-251.2411 345.3239,-250.4089 343.0372,-249.5315"/>
<polygon fill="#000000" stroke="#000000" points="344.3048,-246.2686 333.7231,-245.7416 341.6665,-252.7524 344.3048,-246.2686"/>
</g>
<!-- browser&#45;stdout -->
<g id="node7" class="node">
<title>browser&#45;stdout</title>
<ellipse fill="none" stroke="#000000" cx="422.8426" cy="-234" rx="63.8893" ry="18"/>
<text text-anchor="middle" x="422.8426" y="-230.3" font-family="Times,serif" font-size="14.00" fill="#000000">browser&#45;stdout</text>
</g>
<!-- mocha&#45;&gt;browser&#45;stdout -->
<g id="edge6" class="edge">
<title>mocha&#45;&gt;browser&#45;stdout</title>
<path fill="none" stroke="#000000" d="M544.5724,-293.6228C522.4199,-282.7726 489.8025,-266.7967 463.9055,-254.1125"/>
<polygon fill="#000000" stroke="#000000" points="465.2207,-250.8594 454.7005,-249.6039 462.1415,-257.1458 465.2207,-250.8594"/>
</g>
<!-- glob -->
<g id="node8" class="node">
<title>glob</title>
<ellipse fill="none" stroke="#000000" cx="569.8426" cy="-234" rx="27" ry="18"/>
<text text-anchor="middle" x="569.8426" y="-230.3" font-family="Times,serif" font-size="14.00" fill="#000000">glob</text>
</g>
<!-- mocha&#45;&gt;glob -->
<g id="edge7" class="edge">
<title>mocha&#45;&gt;glob</title>
<path fill="none" stroke="#000000" d="M569.8426,-287.8314C569.8426,-280.131 569.8426,-270.9743 569.8426,-262.4166"/>
<polygon fill="#000000" stroke="#000000" points="573.3427,-262.4132 569.8426,-252.4133 566.3427,-262.4133 573.3427,-262.4132"/>
</g>
<!-- minimatch -->
<g id="node12" class="node">
<title>minimatch</title>
<ellipse fill="none" stroke="#000000" cx="388.8426" cy="-162" rx="49.2915" ry="18"/>
<text text-anchor="middle" x="388.8426" y="-158.3" font-family="Times,serif" font-size="14.00" fill="#000000">minimatch</text>
</g>
<!-- mocha&#45;&gt;minimatch -->
<g id="edge23" class="edge">
<title>mocha&#45;&gt;minimatch</title>
<path fill="none" stroke="#000000" d="M558.7922,-288.5845C545.671,-268.978 522.2158,-237.1104 495.8426,-216 476.9104,-200.8458 453.0402,-188.2979 432.6517,-179.124"/>
<polygon fill="#000000" stroke="#000000" points="433.8252,-175.8174 423.2602,-175.0223 431.0235,-182.2322 433.8252,-175.8174"/>
</g>
<!-- growl -->
<g id="node19" class="node">
<title>growl</title>
<ellipse fill="none" stroke="#000000" cx="645.8426" cy="-234" rx="31.3957" ry="18"/>
<text text-anchor="middle" x="645.8426" y="-230.3" font-family="Times,serif" font-size="14.00" fill="#000000">growl</text>
</g>
<!-- mocha&#45;&gt;growl -->
<g id="edge20" class="edge">
<title>mocha&#45;&gt;growl</title>
<path fill="none" stroke="#000000" d="M586.7094,-290.0209C597.0846,-280.1918 610.5415,-267.4431 621.9965,-256.591"/>
<polygon fill="#000000" stroke="#000000" points="624.692,-258.8586 629.5445,-249.4403 619.8778,-253.7769 624.692,-258.8586"/>
</g>
<!-- supports&#45;color -->
<g id="node20" class="node">
<title>supports&#45;color</title>
<ellipse fill="none" stroke="#000000" cx="756.8426" cy="-234" rx="61.99" ry="18"/>
<text text-anchor="middle" x="756.8426" y="-230.3" font-family="Times,serif" font-size="14.00" fill="#000000">supports&#45;color</text>
</g>
<!-- mocha&#45;&gt;supports&#45;color -->
<g id="edge21" class="edge">
<title>mocha&#45;&gt;supports&#45;color</title>
<path fill="none" stroke="#000000" d="M597.8384,-295.2209C627.3612,-283.8538 674.3941,-265.7449 709.6624,-252.1656"/>
<polygon fill="#000000" stroke="#000000" points="711.199,-255.3245 719.2735,-248.4651 708.6837,-248.792 711.199,-255.3245"/>
</g>
<!-- he -->
<g id="node22" class="node">
<title>he</title>
<ellipse fill="none" stroke="#000000" cx="863.8426" cy="-234" rx="27" ry="18"/>
<text text-anchor="middle" x="863.8426" y="-230.3" font-family="Times,serif" font-size="14.00" fill="#000000">he</text>
</g>
<!-- mocha&#45;&gt;he -->
<g id="edge24" class="edge">
<title>mocha&#45;&gt;he</title>
<path fill="none" stroke="#000000" d="M603.5723,-301.7657C653.5683,-294.8628 749.8331,-279.1555 827.8426,-252 829.7234,-251.3453 831.6316,-250.6133 833.5378,-249.8292"/>
<polygon fill="#000000" stroke="#000000" points="835.2433,-252.8994 842.9159,-245.5932 832.3617,-246.52 835.2433,-252.8994"/>
</g>
<!-- commander -->
<g id="node23" class="node">
<title>commander</title>
<ellipse fill="none" stroke="#000000" cx="961.8426" cy="-234" rx="53.0913" ry="18"/>
<text text-anchor="middle" x="961.8426" y="-230.3" font-family="Times,serif" font-size="14.00" fill="#000000">commander</text>
</g>
<!-- mocha&#45;&gt;commander -->
<g id="edge25" class="edge">
<title>mocha&#45;&gt;commander</title>
<path fill="none" stroke="#000000" d="M603.8311,-301.8123C663.9549,-294.0998 792.823,-276.1989 899.8426,-252 903.9627,-251.0684 908.2134,-250.0209 912.467,-248.912"/>
<polygon fill="#000000" stroke="#000000" points="913.6002,-252.2313 922.3372,-246.2383 911.7699,-245.4748 913.6002,-252.2313"/>
</g>
<!-- diff -->
<g id="node24" class="node">
<title>diff</title>
<ellipse fill="none" stroke="#000000" cx="1059.8426" cy="-234" rx="27" ry="18"/>
<text text-anchor="middle" x="1059.8426" y="-230.3" font-family="Times,serif" font-size="14.00" fill="#000000">diff</text>
</g>
<!-- mocha&#45;&gt;diff -->
<g id="edge26" class="edge">
<title>mocha&#45;&gt;diff</title>
<path fill="none" stroke="#000000" d="M604.0592,-303.4641C695.6793,-296.4304 944.9536,-275.6289 1023.8426,-252 1025.7503,-251.4286 1027.6795,-250.7613 1029.6017,-250.0266"/>
<polygon fill="#000000" stroke="#000000" points="1031.2525,-253.1252 1039.0226,-245.9227 1028.4569,-246.7077 1031.2525,-253.1252"/>
</g>
<!-- minimist -->
<g id="node4" class="node">
<title>minimist</title>
<ellipse fill="none" stroke="#000000" cx="206.8426" cy="-162" rx="42.7926" ry="18"/>
<text text-anchor="middle" x="206.8426" y="-158.3" font-family="Times,serif" font-size="14.00" fill="#000000">minimist</text>
</g>
<!-- mkdirp&#45;&gt;minimist -->
<g id="edge3" class="edge">
<title>mkdirp&#45;&gt;minimist</title>
<path fill="none" stroke="#000000" d="M218.0574,-215.8314C216.4532,-208.131 214.5455,-198.9743 212.7627,-190.4166"/>
<polygon fill="#000000" stroke="#000000" points="216.1447,-189.4892 210.6787,-180.4133 209.2918,-190.9169 216.1447,-189.4892"/>
</g>
<!-- ms -->
<g id="node6" class="node">
<title>ms</title>
<ellipse fill="none" stroke="#000000" cx="294.8426" cy="-162" rx="27" ry="18"/>
<text text-anchor="middle" x="294.8426" y="-158.3" font-family="Times,serif" font-size="14.00" fill="#000000">ms</text>
</g>
<!-- debug&#45;&gt;ms -->
<g id="edge5" class="edge">
<title>debug&#45;&gt;ms</title>
<path fill="none" stroke="#000000" d="M305.3098,-215.8314C303.7727,-207.9266 301.9373,-198.4872 300.2358,-189.7365"/>
<polygon fill="#000000" stroke="#000000" points="303.6702,-189.0615 298.3257,-179.9134 296.7988,-190.3976 303.6702,-189.0615"/>
</g>
<!-- inflight -->
<g id="node9" class="node">
<title>inflight</title>
<ellipse fill="none" stroke="#000000" cx="583.8426" cy="-162" rx="36.2938" ry="18"/>
<text text-anchor="middle" x="583.8426" y="-158.3" font-family="Times,serif" font-size="14.00" fill="#000000">inflight</text>
</g>
<!-- glob&#45;&gt;inflight -->
<g id="edge8" class="edge">
<title>glob&#45;&gt;inflight</title>
<path fill="none" stroke="#000000" d="M573.3754,-215.8314C574.8727,-208.131 576.6531,-198.9743 578.3171,-190.4166"/>
<polygon fill="#000000" stroke="#000000" points="581.7891,-190.8975 580.2622,-180.4133 574.9178,-189.5614 581.7891,-190.8975"/>
</g>
<!-- once -->
<g id="node11" class="node">
<title>once</title>
<ellipse fill="none" stroke="#000000" cx="638.8426" cy="-90" rx="27.0966" ry="18"/>
<text text-anchor="middle" x="638.8426" y="-86.3" font-family="Times,serif" font-size="14.00" fill="#000000">once</text>
</g>
<!-- glob&#45;&gt;once -->
<g id="edge19" class="edge">
<title>glob&#45;&gt;once</title>
<path fill="none" stroke="#000000" d="M589.7818,-221.4609C603.2165,-211.8559 620.0361,-197.3308 628.8426,-180 638.4871,-161.0199 640.7262,-136.9356 640.6958,-118.4584"/>
<polygon fill="#000000" stroke="#000000" points="644.1913,-118.2222 640.4545,-108.3082 637.1933,-118.3886 644.1913,-118.2222"/>
</g>
<!-- glob&#45;&gt;minimatch -->
<g id="edge12" class="edge">
<title>glob&#45;&gt;minimatch</title>
<path fill="none" stroke="#000000" d="M547.3647,-223.9117C541.3696,-221.2814 534.88,-218.4881 528.8426,-216 496.9553,-202.8587 460.6068,-188.8674 432.9394,-178.4199"/>
<polygon fill="#000000" stroke="#000000" points="434.1286,-175.1278 423.5367,-174.8795 431.6619,-181.6788 434.1286,-175.1278"/>
</g>
<!-- fs.realpath -->
<g id="node16" class="node">
<title>fs.realpath</title>
<ellipse fill="none" stroke="#000000" cx="723.8426" cy="-162" rx="48.1917" ry="18"/>
<text text-anchor="middle" x="723.8426" y="-158.3" font-family="Times,serif" font-size="14.00" fill="#000000">fs.realpath</text>
</g>
<!-- glob&#45;&gt;fs.realpath -->
<g id="edge16" class="edge">
<title>glob&#45;&gt;fs.realpath</title>
<path fill="none" stroke="#000000" d="M591.4852,-223.0276C596.2026,-220.6783 601.1784,-218.2325 605.8426,-216 631.4477,-203.7444 660.4331,-190.4715 683.2685,-180.1516"/>
<polygon fill="#000000" stroke="#000000" points="684.9733,-183.2223 692.6508,-175.9211 682.0959,-176.841 684.9733,-183.2223"/>
</g>
<!-- path&#45;is&#45;absolute -->
<g id="node17" class="node">
<title>path&#45;is&#45;absolute</title>
<ellipse fill="none" stroke="#000000" cx="856.8426" cy="-162" rx="66.8882" ry="18"/>
<text text-anchor="middle" x="856.8426" y="-158.3" font-family="Times,serif" font-size="14.00" fill="#000000">path&#45;is&#45;absolute</text>
</g>
<!-- glob&#45;&gt;path&#45;is&#45;absolute -->
<g id="edge17" class="edge">
<title>glob&#45;&gt;path&#45;is&#45;absolute</title>
<path fill="none" stroke="#000000" d="M590.7647,-222.394C595.6125,-220.0295 600.8241,-217.7373 605.8426,-216 680.88,-190.0237 703.3107,-197.1521 780.8426,-180 786.1383,-178.8284 791.6346,-177.5835 797.1395,-176.3168"/>
<polygon fill="#000000" stroke="#000000" points="798.0664,-179.6948 807.0161,-174.0243 796.4836,-172.8761 798.0664,-179.6948"/>
</g>
<!-- inherits -->
<g id="node18" class="node">
<title>inherits</title>
<ellipse fill="none" stroke="#000000" cx="492.8426" cy="-162" rx="37.0935" ry="18"/>
<text text-anchor="middle" x="492.8426" y="-158.3" font-family="Times,serif" font-size="14.00" fill="#000000">inherits</text>
</g>
<!-- glob&#45;&gt;inherits -->
<g id="edge18" class="edge">
<title>glob&#45;&gt;inherits</title>
<path fill="none" stroke="#000000" d="M553.8881,-219.0816C543.4089,-209.2829 529.4891,-196.2669 517.5881,-185.1386"/>
<polygon fill="#000000" stroke="#000000" points="519.8101,-182.4247 510.1154,-178.1512 515.0291,-187.5377 519.8101,-182.4247"/>
</g>
<!-- wrappy -->
<g id="node10" class="node">
<title>wrappy</title>
<ellipse fill="none" stroke="#000000" cx="611.8426" cy="-18" rx="37.0935" ry="18"/>
<text text-anchor="middle" x="611.8426" y="-14.3" font-family="Times,serif" font-size="14.00" fill="#000000">wrappy</text>
</g>
<!-- inflight&#45;&gt;wrappy -->
<g id="edge9" class="edge">
<title>inflight&#45;&gt;wrappy</title>
<path fill="none" stroke="#000000" d="M587.3322,-144.0535C592.1109,-119.4774 600.7396,-75.1008 606.3792,-46.0974"/>
<polygon fill="#000000" stroke="#000000" points="609.8359,-46.6569 608.309,-36.1727 602.9645,-45.3208 609.8359,-46.6569"/>
</g>
<!-- inflight&#45;&gt;once -->
<g id="edge10" class="edge">
<title>inflight&#45;&gt;once</title>
<path fill="none" stroke="#000000" d="M596.8768,-144.937C603.8256,-135.8403 612.4971,-124.4886 620.1509,-114.4691"/>
<polygon fill="#000000" stroke="#000000" points="622.9914,-116.5163 626.2805,-106.4449 617.4287,-112.267 622.9914,-116.5163"/>
</g>
<!-- once&#45;&gt;wrappy -->
<g id="edge11" class="edge">
<title>once&#45;&gt;wrappy</title>
<path fill="none" stroke="#000000" d="M632.1684,-72.2022C629.1179,-64.0675 625.4364,-54.2501 622.0494,-45.2181"/>
<polygon fill="#000000" stroke="#000000" points="625.322,-43.9769 618.5335,-35.8425 618.7677,-46.4348 625.322,-43.9769"/>
</g>
<!-- brace&#45;expansion -->
<g id="node13" class="node">
<title>brace&#45;expansion</title>
<ellipse fill="none" stroke="#000000" cx="388.8426" cy="-90" rx="68.4888" ry="18"/>
<text text-anchor="middle" x="388.8426" y="-86.3" font-family="Times,serif" font-size="14.00" fill="#000000">brace&#45;expansion</text>
</g>
<!-- minimatch&#45;&gt;brace&#45;expansion -->
<g id="edge13" class="edge">
<title>minimatch&#45;&gt;brace&#45;expansion</title>
<path fill="none" stroke="#000000" d="M388.8426,-143.8314C388.8426,-136.131 388.8426,-126.9743 388.8426,-118.4166"/>
<polygon fill="#000000" stroke="#000000" points="392.3427,-118.4132 388.8426,-108.4133 385.3427,-118.4133 392.3427,-118.4132"/>
</g>
<!-- balanced&#45;match -->
<g id="node14" class="node">
<title>balanced&#45;match</title>
<ellipse fill="none" stroke="#000000" cx="320.8426" cy="-18" rx="66.8882" ry="18"/>
<text text-anchor="middle" x="320.8426" y="-14.3" font-family="Times,serif" font-size="14.00" fill="#000000">balanced&#45;match</text>
</g>
<!-- brace&#45;expansion&#45;&gt;balanced&#45;match -->
<g id="edge14" class="edge">
<title>brace&#45;expansion&#45;&gt;balanced&#45;match</title>
<path fill="none" stroke="#000000" d="M372.0336,-72.2022C363.7166,-63.396 353.5372,-52.6179 344.4526,-42.9989"/>
<polygon fill="#000000" stroke="#000000" points="346.869,-40.46 337.4582,-35.593 341.7799,-45.2664 346.869,-40.46"/>
</g>
<!-- concat&#45;map -->
<g id="node15" class="node">
<title>concat&#45;map</title>
<ellipse fill="none" stroke="#000000" cx="457.8426" cy="-18" rx="51.9908" ry="18"/>
<text text-anchor="middle" x="457.8426" y="-14.3" font-family="Times,serif" font-size="14.00" fill="#000000">concat&#45;map</text>
</g>
<!-- brace&#45;expansion&#45;&gt;concat&#45;map -->
<g id="edge15" class="edge">
<title>brace&#45;expansion&#45;&gt;concat&#45;map</title>
<path fill="none" stroke="#000000" d="M405.8987,-72.2022C414.464,-63.2646 424.9759,-52.2957 434.2973,-42.569"/>
<polygon fill="#000000" stroke="#000000" points="437.0656,-44.7388 441.4577,-35.0972 432.0117,-39.8955 437.0656,-44.7388"/>
</g>
<!-- has&#45;flag -->
<g id="node21" class="node">
<title>has&#45;flag</title>
<ellipse fill="none" stroke="#000000" cx="980.8426" cy="-162" rx="38.9931" ry="18"/>
<text text-anchor="middle" x="980.8426" y="-158.3" font-family="Times,serif" font-size="14.00" fill="#000000">has&#45;flag</text>
</g>
<!-- supports&#45;color&#45;&gt;has&#45;flag -->
<g id="edge22" class="edge">
<title>supports&#45;color&#45;&gt;has&#45;flag</title>
<path fill="none" stroke="#000000" d="M800.8401,-221.3121C836.5874,-210.809 888.2163,-195.1977 932.8426,-180 935.5675,-179.072 938.37,-178.0912 941.1871,-177.0857"/>
<polygon fill="#000000" stroke="#000000" points="942.5294,-180.3219 950.7294,-173.613 940.1354,-173.7439 942.5294,-180.3219"/>
</g>
</g>
</svg>
